{
  "files": {
    "main.css": "/static/css/main.616d2839.css",
    "main.js": "/static/js/main.2b0064cb.js",
    "static/js/845.aa9cb2bc.chunk.js": "/static/js/845.aa9cb2bc.chunk.js",
    "index.html": "/index.html",
    "main.616d2839.css.map": "/static/css/main.616d2839.css.map",
    "main.2b0064cb.js.map": "/static/js/main.2b0064cb.js.map",
    "845.aa9cb2bc.chunk.js.map": "/static/js/845.aa9cb2bc.chunk.js.map"
  },
  "entrypoints": [
    "static/css/main.616d2839.css",
    "static/js/main.2b0064cb.js"
  ]
}